<?xml version="1.0" encoding="utf-8"?>
<!-- Generator: Adobe Illustrator 23.0.3, SVG Export Plug-In . SVG Version: 6.00 Build 0)  -->
<svg version="1.1" id="Layer_1" xmlns="http://www.w3.org/2000/svg" xmlns:xlink="http://www.w3.org/1999/xlink" x="0px" y="0px"
	 width="17.4px" height="20.8px" viewBox="0 0 17.4 20.8" style="enable-background:new 0 0 17.4 20.8;" xml:space="preserve">
<style type="text/css">
	.st0{fill:#002987;}
	.st1{fill:#0085CC;}
	.st2{fill:#00186A;}
</style>
<g transform="translate(611.807 1399)">
	<path class="st0" d="M-596.1-1393.6c0-0.3,0.1-0.6,0.1-0.9c0-2.5-2-4.5-4.5-4.5h-7.5c-0.5,0-0.9,0.3-1,0.8l-2.8,16.5
		c-0.1,0.5,0.3,1,0.8,1.1c0.1,0,0.1,0,0.2,0h2.8c0.5,0,0.9-0.3,1-0.8l0-0.1l0,0l-0.4,2.3c-0.1,0.5,0.2,0.9,0.7,1c0,0,0.1,0,0.1,0
		h2.4c0.4,0,0.8-0.3,0.8-0.7l0.7-4.1c0.1-0.7,0.7-1.2,1.4-1.2h0.6c3.4,0,6.2-2.8,6.2-6.2l0,0C-594.4-1391.7-595-1392.9-596.1-1393.6
		z"/>
	<path class="st1" d="M-596.1-1393.6c-0.4,3.6-3.5,6.2-7,6.2h-2.1c-0.5,0-0.9,0.3-1,0.8l-1.3,7.5c-0.1,0.5,0.2,0.9,0.7,1
		c0,0,0.1,0,0.1,0h2.4c0.4,0,0.8-0.3,0.8-0.7l0.7-4.1c0.1-0.7,0.7-1.2,1.4-1.2h0.6c3.4,0,6.2-2.8,6.2-6.2l0,0
		C-594.4-1391.7-595-1392.9-596.1-1393.6z"/>
	<path class="st2" d="M-605.2-1387.4h2.1c3.6,0,6.6-2.7,7-6.2c-0.7-0.5-1.5-0.7-2.3-0.7h-5.5c-0.6,0-1.2,0.5-1.3,1.1l-1.1,6.6
		C-606.1-1387.1-605.7-1387.4-605.2-1387.4z"/>
</g>
</svg>
