<?xml version="1.0" encoding="utf-8"?>
<!-- Generator: Adobe Illustrator 23.0.3, SVG Export Plug-In . SVG Version: 6.00 Build 0)  -->
<svg version="1.1" id="Layer_1" xmlns="http://www.w3.org/2000/svg" xmlns:xlink="http://www.w3.org/1999/xlink" x="0px" y="0px"
	 width="45.5px" height="14px" viewBox="0 0 45.5 14" style="enable-background:new 0 0 45.5 14;" xml:space="preserve">
<style type="text/css">
	.st0{fill:#2B357E;}
</style>
<path class="st0" d="M42.5,0.3h-2.9c-0.8-0.1-1.6,0.4-1.9,1.1l-5.5,12.4h3.9c0,0,0.6-1.7,0.8-2h4.7c0.1,0.5,0.5,2,0.5,2h3.4
	L42.5,0.3z M37.9,9c0.3-0.8,1.5-3.8,1.5-3.8s0.3-0.8,0.5-1.3l0.2,1.2L41,9L37.9,9z"/>
<path class="st0" d="M32.5,9.4c0,2.8-2.6,4.6-6.4,4.6c-1.4,0-2.8-0.2-4.1-0.7l0.5-3l0.5,0.2c1.1,0.5,2.3,0.7,3.5,0.7
	c1.1,0,2.2-0.4,2.2-1.3c0-0.6-0.5-1-1.9-1.7c-1.4-0.6-3.3-1.7-3.2-3.7c0-2.6,2.6-4.5,6.2-4.5c1.1,0,2.3,0.2,3.3,0.6l-0.5,2.9
	l-0.3-0.2c-0.9-0.4-1.8-0.5-2.8-0.5c-1.4,0-2.1,0.6-2.1,1.2s0.8,1.1,2.1,1.7C31.5,6.7,32.5,7.9,32.5,9.4L32.5,9.4z"/>
<path class="st0" d="M0,0.4V0.1h5.7C6.4,0,7.1,0.5,7.3,1.2l1.2,6C7.4,4.1,4.5,1.5,0,0.4z"/>
<path class="st0" d="M16.7,0.3l-5.8,13.5H7L3.7,2.5c2.2,1.4,3.9,3.3,5.1,5.6l0.4,1.4l3.6-9.3h3.9V0.3z"/>
<polygon class="st0" points="18.2,0.3 21.9,0.3 19.6,13.9 15.9,13.9 "/>
</svg>
