<?xml version="1.0" encoding="utf-8"?>
<!-- Generator: Adobe Illustrator 22.0.0, SVG Export Plug-In . SVG Version: 6.00 Build 0)  -->
<svg version="1.1" id="Layer_1" xmlns="http://www.w3.org/2000/svg" xmlns:xlink="http://www.w3.org/1999/xlink" x="0px" y="0px"
	 width="6.3px" height="10.6px" viewBox="0 0 6.3 10.6" style="enable-background:new 0 0 6.3 10.6;" xml:space="preserve">
<path d="M6.3,7.3L5.4,6.4L3.9,7.9V0.6C3.9,0.3,3.6,0,3.3,0S2.6,0.3,2.6,0.6v7.5L0.9,6.4L0,7.3l3.2,3.3L6.3,7.3z"/>
</svg>
