<?xml version="1.0" encoding="utf-8"?>
<!-- Generator: Adobe Illustrator 22.0.0, SVG Export Plug-In . SVG Version: 6.00 Build 0)  -->
<svg version="1.1" id="Layer_1" xmlns="http://www.w3.org/2000/svg" xmlns:xlink="http://www.w3.org/1999/xlink" x="0px" y="0px"
	 width="14.1px" height="11.9px" viewBox="0 0 14.1 11.9" style="enable-background:new 0 0 14.1 11.9;" xml:space="preserve">
<path d="M13.6,1.1c-0.3-0.3-0.8-0.5-1.2-0.5l-1.3,0V0H9.6v0.6l-5.2,0V0H3v0.6l-1.2,0c0,0,0,0,0,0C0.8,0.6,0.1,1.3,0,2.2l0,8.1
	c0,0.4,0.2,0.9,0.5,1.2c0.3,0.3,0.7,0.5,1.1,0.5c0,0,0,0,0.1,0h10.7c0.9,0,1.6-0.7,1.7-1.6v-8C14.1,1.8,13.9,1.4,13.6,1.1z
	 M12.4,10.4H1.7c-0.1,0-0.1,0-0.1,0c0,0-0.1-0.1-0.1-0.1l0-8c0-0.1,0.1-0.2,0.2-0.2l1.3,0V3h1.5V2.1l5.2,0V3h1.5V2.2l1.3,0
	c0,0,0,0,0,0c0.1,0,0.2,0.1,0.2,0.1l0,7.9C12.6,10.4,12.5,10.4,12.4,10.4z"/>
<rect x="3" y="4.4" width="1.5" height="1.5"/>
<rect x="5.2" y="4.4" width="1.5" height="1.5"/>
<rect x="7.4" y="4.4" width="1.5" height="1.5"/>
<rect x="9.6" y="4.4" width="1.5" height="1.5"/>
<rect x="3" y="6.7" width="1.5" height="1.5"/>
<rect x="5.2" y="6.7" width="1.5" height="1.5"/>
<rect x="7.4" y="6.7" width="1.5" height="1.5"/>
<rect x="9.6" y="6.7" width="1.5" height="1.5"/>
</svg>
