<?xml version="1.0" encoding="utf-8"?>
<!-- Generator: Adobe Illustrator 19.2.1, SVG Export Plug-In . SVG Version: 6.00 Build 0)  -->
<svg version="1.1" id="Layer_1" xmlns="http://www.w3.org/2000/svg" xmlns:xlink="http://www.w3.org/1999/xlink" x="0px" y="0px"
	 width="18px" height="15px" viewBox="0 0 18 15" style="enable-background:new 0 0 18 15;" xml:space="preserve">
<path d="M17.9,7.4l-1-2.7C16.8,4.3,16.4,4,16,4h-3V1c0-0.6-0.4-1-1-1H1C0.4,0,0,0.4,0,1v11c0,0.6,0.4,1,1,1h1c0,1.1,0.9,2,2,2
	s2-0.9,2-2h5c0,1.1,0.9,2,2,2s2-0.9,2-2h2c0.6,0,1-0.4,1-1V7.7C18,7.6,18,7.5,17.9,7.4z M2,11V2h9v2v2v5H2z M16,11h-3V6h2.3L16,7.9
	V11z"/>
</svg>
