<?xml version="1.0" encoding="utf-8"?>
<!-- Generator: Adobe Illustrator 23.0.0, SVG Export Plug-In . SVG Version: 6.00 Build 0)  -->
<svg version="1.1" id="Layer_1" xmlns="http://www.w3.org/2000/svg" xmlns:xlink="http://www.w3.org/1999/xlink" x="0px" y="0px"
	 width="18.9px" height="16.5px" viewBox="0 0 18.9 16.5" style="enable-background:new 0 0 18.9 16.5;" xml:space="preserve">
<path d="M7.1,12.7c-1.1,0-1.9,0.9-1.9,1.9s0.9,1.9,1.9,1.9c1.1,0,1.9-0.9,1.9-1.9S8.1,12.7,7.1,12.7z"/>
<path d="M14.6,12.7c-1.1,0-1.9,0.9-1.9,1.9s0.9,1.9,1.9,1.9s1.9-0.9,1.9-1.9S15.6,12.7,14.6,12.7z"/>
<path d="M17.9,2.8H5.2L4.7,0.8C4.6,0.3,4.2,0,3.7,0H1C0.4,0,0,0.4,0,1s0.4,1,1,1h1.9l2.4,9.6c0.1,0.4,0.5,0.8,1,0.8h8.7
	c0.6,0,1-0.4,1-1s-0.4-1-1-1H7.1L6.7,8.6H16c0.6,0,1-0.4,1-1s-0.4-1-1-1H6.2L5.7,4.8h12.2c0.6,0,1-0.4,1-1S18.4,2.8,17.9,2.8z"/>
</svg>
