<?xml version="1.0" encoding="utf-8"?>
<!-- Generator: Adobe Illustrator 19.2.1, SVG Export Plug-In . SVG Version: 6.00 Build 0)  -->
<svg version="1.1" id="Layer_1" xmlns="http://www.w3.org/2000/svg" xmlns:xlink="http://www.w3.org/1999/xlink" x="0px" y="0px"
	 width="14px" height="14px" viewBox="0 0 14 14" style="enable-background:new 0 0 14 14;" xml:space="preserve">
<path d="M13.4,8c0.1-0.3,0.1-0.7,0.1-1c0-3.6-2.9-6.5-6.5-6.5l0,0c-0.3,0-0.7,0-1,0.1C5.4,0.2,4.6,0,3.9,0C1.7,0,0,1.7,0,3.9
	C0,4.6,0.2,5.4,0.6,6C0.5,6.3,0.5,6.7,0.5,7c0,3.6,2.9,6.5,6.5,6.5l0,0c0.3,0,0.7,0,1-0.1c0.6,0.4,1.4,0.6,2.1,0.6
	c2.2,0,3.9-1.7,3.9-3.9C14,9.4,13.8,8.6,13.4,8z M10.1,10c-0.3,0.4-0.7,0.7-1.2,0.9c-0.6,0.2-1.3,0.3-1.9,0.3
	c-0.7,0-1.5-0.1-2.1-0.5c-0.4-0.2-0.7-0.5-1-0.9C3.6,9.5,3.5,9.1,3.5,8.7c0-0.2,0.1-0.4,0.2-0.5C3.9,8.1,4.1,8,4.3,8
	s0.4,0.1,0.5,0.2C4.9,8.4,5,8.5,5.1,8.7c0,0.2,0.2,0.5,0.4,0.6C5.6,9.5,5.8,9.6,6,9.7c0.3,0.1,0.6,0.2,0.9,0.2
	c0.5,0,0.9-0.1,1.3-0.3c0.3-0.2,0.5-0.5,0.5-0.8c0-0.2-0.1-0.5-0.3-0.6C8.2,8,8,7.9,7.7,7.8S7,7.6,6.6,7.5C6,7.4,5.5,7.2,5,7
	C4.6,6.9,4.2,6.6,4,6.2C3.5,5.5,3.5,4.5,4,3.8C4.3,3.4,4.7,3.1,5.2,3C5.8,2.8,6.4,2.7,7,2.7c0.5,0,0.9,0.1,1.4,0.2
	c0.4,0.1,0.7,0.3,1,0.5S9.9,3.8,10,4.1c0.1,0.2,0.2,0.5,0.2,0.7S10.1,5.2,10,5.3C9.8,5.5,9.7,5.5,9.4,5.5c-0.2,0-0.4,0-0.5-0.1
	C8.8,5.2,8.7,5.1,8.6,4.9C8.5,4.6,8.3,4.4,8,4.2S7.3,3.9,6.9,4C6.5,4,6.1,4.1,5.8,4.3C5.6,4.4,5.4,4.6,5.4,4.9c0,0.2,0,0.3,0.1,0.4
	s0.2,0.2,0.4,0.3c0.2,0.1,0.3,0.1,0.5,0.2c0.3,0,0.5,0.1,0.8,0.2c0.4,0.1,0.9,0.2,1.3,0.4c0.4,0.1,0.7,0.3,1,0.5s0.5,0.4,0.7,0.7
	c0.2,0.3,0.2,0.7,0.2,1C10.5,9.1,10.4,9.6,10.1,10L10.1,10z"/>
</svg>
