<?xml version="1.0" encoding="utf-8"?>
<!-- Generator: Adobe Illustrator 19.2.1, SVG Export Plug-In . SVG Version: 6.00 Build 0)  -->
<svg version="1.1" id="Layer_1" xmlns="http://www.w3.org/2000/svg" xmlns:xlink="http://www.w3.org/1999/xlink" x="0px" y="0px"
	 width="16px" height="13.5px" viewBox="0 0 16 13.5" style="enable-background:new 0 0 16 13.5;" xml:space="preserve">
<path d="M14.9,0L0.3,5.7C0.1,5.9-0.1,6.2,0,6.4c0.1,0.1,0.2,0.2,0.3,0.3L4,7.8l1.4,4.4c0.1,0.4,0.5,0.6,0.8,0.5
	c0.1,0,0.2-0.1,0.3-0.2l1.9-2l3.8,2.8c0.3,0.2,0.8,0.2,1.1-0.2c0.1-0.1,0.1-0.2,0.1-0.3l2.5-11.9C16,0.5,15.8,0.1,15.4,0
	C15.2,0,15.1,0,14.9,0L14.9,0z M13.1,2.6l-6.8,6C6.2,8.7,6.2,8.7,6.2,8.8l-0.3,2.3c0,0.1-0.1,0.1-0.1,0L4.7,7.6c0-0.2,0-0.3,0.2-0.4
	l8-5C13,2.2,13.2,2.5,13.1,2.6L13.1,2.6z"/>
</svg>
